Tester:     weka.experiment.PairedCorrectedTTester -G 4,5,6 -D 1 -R 2 -S 0.05 -result-matrix "weka.experiment.ResultMatrixPlainText -mean-prec 2 -stddev-prec 2 -col-name-width 0 -row-name-width 25 -mean-width 0 -stddev-width 0 -sig-width 0 -count-width 5 -print-col-names -print-row-names -enum-col-names"
Analysing:  Percent_correct
Datasets:   1
Resultsets: 4
Confidence: 0.05 (two tailed)
Sorted by:  -
Date:       20-10-20 13:33


Dataset                   (1) rules.Ze | (2) rules (3) trees (4) bayes
----------------------------------------------------------------------
new_bcel                 (100)   72.88 |   81.60 v   82.88 v   72.06 *
----------------------------------------------------------------------
                               (v/ /*) |   (1/0/0)   (1/0/0)   (0/0/1)


Key:
(1) rules.ZeroR '' 48055541465867954
(2) rules.OneR '-B 20' -3459427003147861443
(3) trees.J48 '-C 0.05 -M 15' -217733168393644444
(4) bayes.NaiveBayes '' 5995231201785697655

