Key_Dataset,Key_Run,Key_Scheme,Key_Scheme_options,Key_Scheme_version_ID,Date_time,Number_of_training_instances,Number_of_testing_instances,Number_correct,Number_incorrect,Number_unclassified,Percent_correct,Percent_incorrect,Percent_unclassified,Kappa_statistic,Mean_absolute_error,Root_mean_squared_error,Relative_absolute_error,Root_relative_squared_error,SF_prior_entropy,SF_scheme_entropy,SF_entropy_gain,SF_mean_prior_entropy,SF_mean_scheme_entropy,SF_mean_entropy_gain,KB_information,KB_mean_information,KB_relative_information,True_positive_rate,Num_true_positives,False_positive_rate,Num_false_positives,True_negative_rate,Num_true_negatives,False_negative_rate,Num_false_negatives,IR_precision,IR_recall,F_measure,Matthews_correlation,Area_under_ROC,Area_under_PRC,Weighted_avg_true_positive_rate,Weighted_avg_false_positive_rate,Weighted_avg_true_negative_rate,Weighted_avg_false_negative_rate,Weighted_avg_IR_precision,Weighted_avg_IR_recall,Weighted_avg_F_measure,Weighted_avg_matthews_correlation,Weighted_avg_area_under_ROC,Weighted_avg_area_under_PRC,Unweighted_macro_avg_F_measure,Unweighted_micro_avg_F_measure,Elapsed_Time_training,Elapsed_Time_testing,UserCPU_Time_training,UserCPU_Time_testing,UserCPU_Time_millis_training,UserCPU_Time_millis_testing,Serialized_Model_Size,Serialized_Train_Set_Size,Serialized_Test_Set_Size,Coverage_of_Test_Cases_By_Regions,Size_of_Predicted_Regions,Summary,measureOutOfBagError
new_bcel,1,weka.classifiers.trees.RandomForest,'-P 100 -I 100 -num-slots 1 -K 0 -M 1.0 -V 0.001 -S 1',1116839470751428698,2.0201115122500002E7,9496.0,4891.0,4108.0,783.0,0.0,83.99100388468617,16.008996115313842,0.0,0.5710844158833208,0.2305895197852852,0.3415209361089154,58.32387191505484,76.80874604124949,4124.799452526227,14373.413132525082,-10248.613679998856,0.843344807304483,2.93874731803825,-2.0954025107337673,1696.5277585449476,0.34686725793190504,41.12994529966571,0.6156744536548606,817.0,0.0765993265993266,273.0,0.9234006734006734,3291.0,0.38432554634513943,510.0,0.7495412844036697,0.6156744536548606,0.6760446834919321,0.5759588014305742,0.880407630690223,0.7497391709724055,0.8399100388468616,0.3008349117913276,0.6991650882086725,0.16008996115313842,0.83427536512862,0.8399100388468616,0.8346369785319779,0.5759588014305742,0.8804069373539396,0.8908348421416853,0.7848655189353755,0.8399100388468616,2.17,0.209,2.102279,0.207763,2102.279,207.763,1.4559352E7,884564.0,456299.0,98.7937027192803,82.90738090370067,?,-1.0
new_bcel,2,weka.classifiers.trees.RandomForest,'-P 100 -I 100 -num-slots 1 -K 0 -M 1.0 -V 0.001 -S 1',1116839470751428698,2.0201115122500002E7,9496.0,4891.0,4120.0,771.0,0.0,84.23635248415457,15.763647515845431,0.0,0.5793234500653107,0.23235121359931923,0.33863563194473534,58.77620658046067,76.17785482780938,4123.373987826882,12196.657166647397,-8073.283178820516,0.8430533608315031,2.493693961694418,-1.6506406008629146,1688.5578040676662,0.3452377436245484,40.95087685600833,0.6266968325791855,831.0,0.07741935483870968,276.0,0.9225806451612903,3289.0,0.3733031674208145,495.0,0.7506775067750677,0.6266968325791855,0.6831072749691739,0.5835041465941482,0.885269049900681,0.755649649867662,0.8423635248415456,0.29308604710106984,0.7069139528989302,0.1576364751584543,0.837057172316028,0.8423635248415456,0.8376176929294421,0.5835041465941482,0.8852685873279067,0.8945546717668194,0.7890975210061546,0.8423635248415456,1.89,0.195,1.8629570000000002,0.19444399999999998,1862.957,194.444,1.4760202E7,884564.0,456299.0,99.03905131874872,83.63320384379473,?,-1.0
new_bcel,3,weka.classifiers.trees.RandomForest,'-P 100 -I 100 -num-slots 1 -K 0 -M 1.0 -V 0.001 -S 1',1116839470751428698,2.0201115122500002E7,9495.0,4892.0,4099.0,793.0,0.0,83.78986099754701,16.210139002452983,0.0,0.5641061366515907,0.23141278764162812,0.34112974273384633,58.53392703135546,76.72569062350506,4125.255856825334,14384.111052335636,-10258.855195510303,0.8432657107165442,2.9403334121699993,-2.0970677014534553,1696.601047014973,0.34681133422219396,41.12717140217875,0.6066314996232103,805.0,0.07601683029453016,271.0,0.9239831697054699,3294.0,0.3933685003767898,522.0,0.7481412639405205,0.6066314996232103,0.6699958385351644,0.5695530240915155,0.8804127459570407,0.7443836681910225,0.8378986099754702,0.3072839406467901,0.69271605935321,0.16210139002452983,0.8319947593845969,0.8378986099754702,0.8321888693398495,0.5695530240915155,0.8804126689354235,0.8888296388676165,0.7812789110031194,0.8378986099754702,1.861,0.16,1.8336459999999999,0.159361,1833.646,159.361,1.4476674E7,884471.0,456392.0,98.75306623058054,83.06418642681929,?,-1.0
new_bcel,4,weka.classifiers.trees.RandomForest,'-P 100 -I 100 -num-slots 1 -K 0 -M 1.0 -V 0.001 -S 1',1116839470751428698,2.0201115122500002E7,9496.0,4891.0,4148.0,743.0,0.0,84.80883254958086,15.191167450419137,0.0,0.5913345465803291,0.22951464789554887,0.34073939445154483,58.058661063046834,76.6511071961899,4123.373987826866,14425.138124297162,-10301.764136470296,0.8430533608315,2.949322863278913,-2.1062695024474127,1719.57234790579,0.3515788893694111,41.70304107709747,0.6251885369532428,829.0,0.06900420757363254,246.0,0.9309957924263674,3319.0,0.37481146304675717,497.0,0.7711627906976745,0.6251885369532428,0.6905456059975011,0.5970515942577785,0.8779059018148202,0.7409463696163573,0.8480883254958086,0.2919039961161983,0.7080960038838016,0.15191167450419138,0.8430284960318852,0.8480883254958086,0.8427308911923165,0.5970515942577785,0.8779059018148201,0.8862953632435605,0.794940869656385,0.8480883254958086,1.989,0.216,1.96125,0.215119,1961.25,215.119,1.4422891E7,884564.0,456299.0,98.38478838683295,82.1304436720507,?,-1.0
new_bcel,5,weka.classifiers.trees.RandomForest,'-P 100 -I 100 -num-slots 1 -K 0 -M 1.0 -V 0.001 -S 1',1116839470751428698,2.02011151226E7,9495.0,4892.0,4106.0,786.0,0.0,83.9329517579722,16.067048242027802,0.0,0.5715096662151954,0.23369464723746936,0.34158009022136154,59.11110431027747,76.82698118152925,4125.255856825336,10125.594399800038,-6000.338542974702,0.8432657107165445,2.0698271463205313,-1.2265614356039864,1672.547164651236,0.34189435090990106,40.54408314781169,0.6217030896759608,825.0,0.07966339410939692,284.0,0.9203366058906031,3281.0,0.37829691032403917,502.0,0.7439134355275022,0.6217030896759608,0.6773399014778324,0.5755888567197391,0.8806858524696375,0.7409583261229206,0.839329517579722,0.29728982201315807,0.7027101779868419,0.160670482420278,0.8338310491981772,0.839329517579722,0.8345236198782776,0.5755888567197393,0.8806859294912548,0.8886628884838875,0.7851860095304241,0.839329517579722,2.039,0.167,1.9909659999999998,0.165819,1990.966,165.819,1.4563458E7,884471.0,456392.0,98.79394930498773,83.24816026165168,?,-1.0
new_bcel,6,weka.classifiers.trees.RandomForest,'-P 100 -I 100 -num-slots 1 -K 0 -M 1.0 -V 0.001 -S 1',1116839470751428698,2.02011151226E7,9496.0,4891.0,4114.0,777.0,0.0,84.11367818442037,15.886321815579636,0.0,0.5762613818984788,0.22950148474846552,0.3378968104280925,58.0553312769001,76.01165306718758,4123.37398782688,10053.182980348613,-5929.808992521733,0.8430533608315027,2.0554453036901683,-1.2123919428586654,1718.4556375658924,0.35135056993782304,41.67595863579576,0.6251885369532428,829.0,0.0785413744740533,280.0,0.9214586255259467,3285.0,0.37481146304675717,497.0,0.7475202885482417,0.6251885369532428,0.6809034907597535,0.580339447487429,0.8864345414506293,0.7547095776228654,0.8411367818442036,0.2944896193650141,0.7055103806349858,0.15886321815579635,0.8357653437042715,0.8411367818442036,0.836404152993608,0.580339447487429,0.8864350811188659,0.8952233262990031,0.7875730193692603,0.8411367818442036,2.103,0.158,2.062422,0.158167,2062.422,158.167,1.4554772E7,884564.0,456299.0,99.0594970353711,83.2651809445921,?,-1.0
new_bcel,7,weka.classifiers.trees.RandomForest,'-P 100 -I 100 -num-slots 1 -K 0 -M 1.0 -V 0.001 -S 1',1116839470751428698,2.02011151226E7,9495.0,4892.0,4102.0,790.0,0.0,83.85118560915781,16.14881439084219,0.0,0.5695437632586486,0.23429673081415373,0.3424326601274675,59.26339630979775,77.01873817793351,4125.255856825333,16550.3138405702,-12425.057983744868,0.8432657107165439,3.3831385610323386,-2.5398728503157946,1670.29991647994,0.34143497883890844,40.48960778314852,0.6209495101733233,824.0,0.08050490883590462,287.0,0.9194950911640953,3278.0,0.3790504898266767,503.0,0.7416741674167416,0.6209495101733233,0.6759639048400328,0.5735298725973201,0.8782142596689112,0.7387959592515688,0.8385118560915781,0.2980672547541594,0.7019327452458406,0.16148814390842192,0.8329797374050496,0.8385118560915781,0.8337323356082764,0.5735298725973201,0.8782148758418488,0.8860274750166908,0.7842111928229567,0.8385118560915781,2.088,0.195,2.0517,0.193221,2051.7,193.221,1.444398E7,884471.0,456392.0,98.73262469337695,83.59566639411284,?,-1.0
new_bcel,8,weka.classifiers.trees.RandomForest,'-P 100 -I 100 -num-slots 1 -K 0 -M 1.0 -V 0.001 -S 1',1116839470751428698,2.02011151226E7,9497.0,4890.0,4135.0,755.0,0.0,84.560327198364,15.439672801635991,0.0,0.58512483843585,0.2313677646314124,0.3398038639164025,58.52561192388492,76.43575238899702,4122.917201520556,11191.103485557536,-7068.18628403698,0.8431323520491935,2.2885692199504164,-1.445436867901223,1703.1341888562042,0.3482892001750929,41.308959302604435,0.6221719457013575,825.0,0.0712682379349046,254.0,0.9287317620650954,3310.0,0.3778280542986425,501.0,0.7645968489341983,0.6221719457013575,0.686070686070686,0.5905900261074042,0.8781789954175575,0.7541992927921862,0.84560327198364,0.29469956421718724,0.7053004357828128,0.15439672801635992,0.8403530524892261,0.84560327198364,0.8402602823266233,0.5905900261074042,0.8781789954175575,0.8897562820353081,0.7918489023573769,0.84560327198364,2.068,0.204,2.006115,0.203261,2006.115,203.261,1.4682925E7,884657.0,456206.0,98.62985685071574,83.35378323108384,?,-1.0
new_bcel,9,weka.classifiers.trees.RandomForest,'-P 100 -I 100 -num-slots 1 -K 0 -M 1.0 -V 0.001 -S 1',1116839470751428698,2.02011151226E7,9495.0,4892.0,4111.0,781.0,0.0,84.03515944399018,15.964840556009811,0.0,0.5726366814704518,0.23368352850133914,0.3399188606327452,59.10829191907007,76.4533433203175,4125.255856825341,13265.701851116339,-9140.445994290998,0.8432657107165455,2.7117133792142964,-1.8684476684977511,1674.9034136440728,0.3423760044243812,40.60120079274362,0.6179351921627732,820.0,0.07685834502103787,274.0,0.9231416549789622,3291.0,0.38206480783722685,507.0,0.7495429616087751,0.6179351921627732,0.6774060305658819,0.5773484949930612,0.8852844841890988,0.750424878989551,0.8403515944399019,0.2992747472981666,0.7007252527018334,0.15964840556009813,0.8347806593557385,0.8403515944399019,0.8351952293193469,0.5773484949930612,0.8852844841890989,0.8935377543874802,0.7856675677751316,0.8403515944399019,1.994,0.168,1.957856,0.167932,1957.856,167.932,1.4760304E7,884471.0,456392.0,99.26410466067048,83.8716271463614,?,-1.0
new_bcel,10,weka.classifiers.trees.RandomForest,'-P 100 -I 100 -num-slots 1 -K 0 -M 1.0 -V 0.001 -S 1',1116839470751428698,2.02011151226E7,9496.0,4891.0,4120.0,771.0,0.0,84.23635248415457,15.763647515845431,0.0,0.5774235614518893,0.231033186156624,0.34080629356220316,58.44279470775931,76.66615650069028,4123.373987826869,17602.467268508943,-13479.093280682075,0.8430533608315005,3.598950576264351,-2.755897215432851,1707.6499553651774,0.34914127077595125,41.41389940389947,0.6199095022624435,822.0,0.07489481065918653,267.0,0.9251051893408134,3298.0,0.38009049773755654,504.0,0.7548209366391184,0.6199095022624435,0.6807453416149069,0.5823575930944468,0.8786709440492132,0.7435728137613532,0.8423635248415456,0.2973488332382888,0.7026511667617112,0.1576364751584543,0.8369065039567547,0.8423635248415456,0.8371641886905055,0.5823575930944468,0.8786697105218152,0.8868140879631458,0.7880447218458679,0.8423635248415456,2.002,0.17,1.9661590000000002,0.170261,1966.159,170.261,1.4466695E7,884564.0,456299.0,98.69147413616847,82.84604375383357,?,-1.0
